<svg width="17" height="16" viewBox="0 0 17 16" fill="none" xmlns="http://www.w3.org/2000/svg">
<path d="M2.44117 14.4006H4.84117V5.52059H2.44117V14.4006ZM3.64117 1.60059C2.84117 1.60059 2.20117 2.24059 2.20117 3.04059C2.20117 3.84059 2.84117 4.48059 3.64117 4.48059C4.44117 4.48059 5.08117 3.84059 5.08117 3.04059C5.08117 2.24059 4.44117 1.60059 3.64117 1.60059ZM8.92117 6.88059V5.52059H6.52117V14.4006H8.92117V9.84059C8.92117 7.28059 12.2012 7.12059 12.2012 9.84059V14.4006H14.6012V8.96059C14.6012 4.64059 10.0412 4.80059 8.92117 6.88059Z" fill="white"/>
</svg>
