<svg width="11" height="10" viewBox="0 0 11 10" fill="none" xmlns="http://www.w3.org/2000/svg">
<path d="M2.75986 9.81934H0.72014V3.26152H2.75986V9.81934ZM1.72904 2.38422C1.09299 2.38422 0.566613 1.83591 0.566613 1.17793C0.566613 0.541889 1.09299 0.0155095 1.72904 0.0155095C2.38701 0.0155095 2.91339 0.541889 2.91339 1.17793C2.91339 1.83591 2.38701 2.38422 1.72904 2.38422ZM10.3704 9.81934H8.35265V6.63912C8.35265 5.87149 8.33072 4.90646 7.27796 4.90646C6.2252 4.90646 6.07167 5.71796 6.07167 6.57333V9.81934H4.03195V3.26152H5.98394V4.16075H6.00587C6.29099 3.6563 6.94897 3.10799 7.93593 3.10799C9.99759 3.10799 10.3924 4.46781 10.3924 6.22241V9.81934H10.3704Z" fill="white"/>
</svg>
