<svg width="12" height="10" viewBox="0 0 12 10" fill="none" xmlns="http://www.w3.org/2000/svg">
<path d="M10.4523 2.32732C10.4523 2.43698 10.4523 2.52471 10.4523 2.63437C10.4523 5.68299 8.14938 9.17026 3.91641 9.17026C2.60046 9.17026 1.39418 8.7974 0.385281 8.13943C0.560741 8.16136 0.736201 8.18329 0.933593 8.18329C2.00829 8.18329 2.99525 7.81044 3.78482 7.19633C2.77592 7.1744 1.92056 6.51642 1.63543 5.59526C1.78896 5.61719 1.92056 5.63912 2.07408 5.63912C2.27148 5.63912 2.4908 5.59526 2.66626 5.55139C1.6135 5.33207 0.823931 4.4109 0.823931 3.29235V3.27041C1.13099 3.44587 1.50384 3.5336 1.87669 3.55554C1.24065 3.13882 0.845863 2.43698 0.845863 1.64741C0.845863 1.20876 0.955526 0.813974 1.15292 0.484987C2.29341 1.86673 4.00414 2.7879 5.91227 2.89756C5.86841 2.7221 5.84647 2.54664 5.84647 2.37118C5.84647 1.0991 6.8773 0.0682694 8.14938 0.0682694C8.80736 0.0682694 9.39954 0.331459 9.83819 0.792042C10.3426 0.682379 10.8471 0.484987 11.2857 0.221797C11.1103 0.770109 10.7594 1.20876 10.2768 1.49388C10.7374 1.45002 11.198 1.31842 11.5928 1.14296C11.2857 1.60354 10.8909 1.99833 10.4523 2.32732Z" fill="white"/>
</svg>
