<svg width="17" height="16" viewBox="0 0 17 16" fill="none" xmlns="http://www.w3.org/2000/svg">
<path d="M8.43815 1.3335C10.2495 1.3335 10.4755 1.34016 11.1862 1.3735C11.8962 1.40683 12.3795 1.51816 12.8048 1.6835C13.2448 1.85283 13.6155 2.08216 13.9862 2.45216C14.3251 2.78543 14.5875 3.18856 14.7548 3.6335C14.9195 4.05816 15.0315 4.54216 15.0648 5.25216C15.0962 5.96283 15.1048 6.18883 15.1048 8.00016C15.1048 9.8115 15.0982 10.0375 15.0648 10.7482C15.0315 11.4582 14.9195 11.9415 14.7548 12.3668C14.5879 12.812 14.3256 13.2152 13.9862 13.5482C13.6528 13.887 13.2497 14.1493 12.8048 14.3168C12.3802 14.4815 11.8962 14.5935 11.1862 14.6268C10.4755 14.6582 10.2495 14.6668 8.43815 14.6668C6.62682 14.6668 6.40082 14.6602 5.69015 14.6268C4.98015 14.5935 4.49682 14.4815 4.07148 14.3168C3.62637 14.1498 3.22317 13.8875 2.89015 13.5482C2.55109 13.215 2.28877 12.8118 2.12148 12.3668C1.95615 11.9422 1.84482 11.4582 1.81148 10.7482C1.78015 10.0375 1.77148 9.8115 1.77148 8.00016C1.77148 6.18883 1.77815 5.96283 1.81148 5.25216C1.84482 4.5415 1.95615 4.05883 2.12148 3.6335C2.28831 3.18828 2.55069 2.78504 2.89015 2.45216C3.22327 2.11298 3.62644 1.85065 4.07148 1.6835C4.49682 1.51816 4.97948 1.40683 5.69015 1.3735C6.40082 1.34216 6.62682 1.3335 8.43815 1.3335ZM8.43815 4.66683C7.5541 4.66683 6.70625 5.01802 6.08113 5.64314C5.45601 6.26826 5.10482 7.11611 5.10482 8.00016C5.10482 8.88422 5.45601 9.73206 6.08113 10.3572C6.70625 10.9823 7.5541 11.3335 8.43815 11.3335C9.32221 11.3335 10.1701 10.9823 10.7952 10.3572C11.4203 9.73206 11.7715 8.88422 11.7715 8.00016C11.7715 7.11611 11.4203 6.26826 10.7952 5.64314C10.1701 5.01802 9.32221 4.66683 8.43815 4.66683ZM12.7715 4.50016C12.7715 4.27915 12.6837 4.06719 12.5274 3.91091C12.3711 3.75463 12.1592 3.66683 11.9382 3.66683C11.7171 3.66683 11.5052 3.75463 11.3489 3.91091C11.1926 4.06719 11.1048 4.27915 11.1048 4.50016C11.1048 4.72118 11.1926 4.93314 11.3489 5.08942C11.5052 5.2457 11.7171 5.3335 11.9382 5.3335C12.1592 5.3335 12.3711 5.2457 12.5274 5.08942C12.6837 4.93314 12.7715 4.72118 12.7715 4.50016ZM8.43815 6.00016C8.96858 6.00016 9.47729 6.21088 9.85237 6.58595C10.2274 6.96102 10.4382 7.46973 10.4382 8.00016C10.4382 8.5306 10.2274 9.0393 9.85237 9.41438C9.47729 9.78945 8.96858 10.0002 8.43815 10.0002C7.90772 10.0002 7.39901 9.78945 7.02394 9.41438C6.64886 9.0393 6.43815 8.5306 6.43815 8.00016C6.43815 7.46973 6.64886 6.96102 7.02394 6.58595C7.39901 6.21088 7.90772 6.00016 8.43815 6.00016Z" fill="white"/>
</svg>
