<svg width="165" height="78" viewBox="0 0 165 78" fill="none" xmlns="http://www.w3.org/2000/svg">
<g opacity="0.3">
<path d="M99.0585 35.879C99.0585 34.4834 97.9304 33.3481 96.5276 33.3481H61.7212C60.3256 33.3481 59.1903 34.4834 59.1903 35.879C59.1903 37.2746 60.3183 38.4099 61.7212 38.4099H94.0022V39.4872C93.9804 41.1648 94.7829 42.5168 96.193 43.1959C96.5694 43.3762 97.1262 43.5723 97.8052 43.5723C98.5496 43.5723 99.4247 43.3411 100.365 42.6112L111.694 33.7911C112.786 32.9305 113.394 31.8024 113.401 30.6101C113.401 29.4675 112.866 28.412 111.883 27.6314C108.007 24.5872 104.118 21.5504 100.214 18.5293C99.2806 17.8139 98.1319 17.5174 97.0256 17.7558C95.9775 17.9725 95.0733 18.6455 94.5238 19.6356C94.1982 20.2432 94.0324 20.973 94.0179 21.7755C93.9949 22.1193 93.9949 22.4739 93.9949 22.8285H61.72C60.3245 22.8285 59.1891 23.9639 59.1891 25.3594C59.1891 26.755 60.3172 27.8904 61.72 27.8904H96.5264C97.922 27.8904 99.0573 26.755 99.0573 25.3594V24.2955V24.028C101.885 26.2188 104.696 28.4169 107.509 30.6295L99.0644 37.2091L99.0585 35.879Z" fill="url(#paint0_linear_663_3911)"/>
<path d="M172.811 49.603C172.775 49.4723 172.782 49.3355 172.731 49.2193C172.587 48.8647 172.369 48.5464 172.102 48.2789C172.102 48.2789 172.102 48.2716 172.094 48.2716L145.162 21.4627C144.62 20.9277 143.89 20.6239 143.124 20.6239L125.988 20.6094V10.0838C125.988 4.79206 121.679 0.481934 116.386 0.481934H42.6186C37.3268 0.481934 33.0167 4.79082 33.0167 10.0838C33.0167 11.6815 34.3179 12.9754 35.9083 12.9754C37.4987 12.9754 38.7999 11.6815 38.7999 10.0838C38.7999 7.98015 40.5065 6.26636 42.6102 6.26636H116.384C118.488 6.26636 120.195 7.98025 120.195 10.0838V23.496V23.5033V23.5105L120.311 58.9583L35.9086 58.9571C34.3109 58.9571 33.017 60.251 33.017 61.8487V77.1625C33.017 82.4542 37.3259 86.7572 42.6118 86.7572H51.5118C52.8638 93.5679 58.8867 98.723 66.0872 98.723C73.2877 98.723 79.3107 93.5679 80.6698 86.7572H130.117C131.469 93.5679 137.492 98.723 144.692 98.723C151.893 98.723 157.916 93.5679 159.268 86.7572H169.989C171.587 86.7572 172.874 85.4633 172.881 83.8729L172.954 50.3339C172.954 50.0724 172.867 49.8412 172.81 49.6028L172.811 49.603ZM163.057 47.434H151.157L152.393 44.275C152.979 42.785 152.242 41.1086 150.752 40.5301C149.262 39.9443 147.585 40.6814 147.007 42.1714L144.953 47.434H126.075L126.003 26.3878L141.938 26.4024L163.057 47.434ZM66.0874 92.9398C61.0909 92.9398 57.0203 88.8692 57.0203 83.8656C57.0203 78.862 61.0909 74.7914 66.0874 74.7914C71.091 74.7914 75.1616 78.862 75.1616 83.8656C75.1616 88.8692 71.091 92.9398 66.0874 92.9398ZM66.0874 69.0082C58.8869 69.0082 52.8713 74.1559 51.512 80.974H42.6119C40.5156 80.974 38.8091 79.2601 38.8091 77.1637V64.7427H120.342L120.393 80.974H80.6659C79.3127 74.1559 73.291 69.0082 66.0893 69.0082H66.0874ZM144.692 92.9398C139.696 92.9398 135.625 88.8692 135.625 83.8656C135.625 78.862 139.696 74.7914 144.692 74.7914C149.689 74.7914 153.759 78.862 153.759 83.8656C153.759 88.8692 149.689 92.9398 144.692 92.9398ZM159.262 80.974C157.902 74.1633 151.887 69.0082 144.686 69.0082C137.486 69.0082 131.47 74.1559 130.111 80.974H126.178L126.113 62.1972C126.128 62.0737 126.186 61.9733 126.186 61.8498C126.186 61.7191 126.128 61.6114 126.113 61.4879L126.09 53.2184H167.159L167.101 80.9749L159.262 80.974Z" fill="url(#paint1_linear_663_3911)"/>
<path d="M51.6223 16.873H31.9705C30.5749 16.873 29.4396 18.0084 29.4396 19.404C29.4396 20.7995 30.5676 21.9349 31.9705 21.9349H51.6223C53.0179 21.9349 54.1532 20.7995 54.1532 19.404C54.152 18.0084 53.0167 16.873 51.6223 16.873Z" fill="url(#paint2_linear_663_3911)"/>
<path d="M27.2798 19.404C27.2798 18.0084 26.1518 16.873 24.7489 16.873L20.8308 16.8743C19.4352 16.8743 18.2998 18.0096 18.2998 19.4052C18.2998 20.8007 19.4279 21.9361 20.8308 21.9361H24.7498C26.1454 21.9349 27.2798 20.8068 27.2798 19.404Z" fill="url(#paint3_linear_663_3911)"/>
<path d="M13.2092 21.9334C14.6048 21.9334 15.7401 20.7981 15.7401 19.4025C15.7401 18.0069 14.6121 16.8716 13.2092 16.8716L11.0257 16.8728C9.63009 16.8728 8.49474 18.0081 8.49474 19.4037C8.49474 20.7993 9.62281 21.9346 11.0257 21.9346L13.2092 21.9334Z" fill="url(#paint4_linear_663_3911)"/>
<path d="M31.9712 43.5721H51.623C53.0185 43.5721 54.1539 42.4367 54.1539 41.0412C54.1539 39.6456 53.0258 38.5103 51.623 38.5103L31.9712 38.5115C30.5756 38.5115 29.4402 39.6468 29.4402 41.0424C29.4402 42.4367 30.5756 43.5721 31.9712 43.5721Z" fill="url(#paint5_linear_663_3911)"/>
<path d="M27.2798 41.0461C27.2798 39.6505 26.1518 38.5151 24.7489 38.5151H20.8308C19.4352 38.5151 18.2998 39.6505 18.2998 41.0461C18.2998 42.4416 19.4279 43.577 20.8308 43.577H24.7498C26.1454 43.5758 27.2798 42.4404 27.2798 41.0461Z" fill="url(#paint6_linear_663_3911)"/>
<path d="M13.2092 43.5721C14.6048 43.5721 15.7401 42.4367 15.7401 41.0412C15.7401 39.6456 14.6121 38.5103 13.2092 38.5103L11.0257 38.5115C9.63009 38.5115 8.49474 39.6468 8.49474 41.0424C8.49474 42.438 9.62281 43.5733 11.0257 43.5733L13.2092 43.5721Z" fill="url(#paint7_linear_663_3911)"/>
<path d="M23.4686 32.7567H43.1204C44.516 32.7567 45.6513 31.6213 45.6513 30.2257C45.6513 28.8302 44.5233 27.6948 43.1204 27.6948L23.4686 27.696C22.073 27.696 20.9377 28.8314 20.9377 30.227C20.9389 31.6213 22.0742 32.7567 23.4686 32.7567Z" fill="url(#paint8_linear_663_3911)"/>
<path d="M11.2571 32.7567H15.1762C16.5718 32.7567 17.7071 31.6213 17.7071 30.2257C17.7071 28.8302 16.579 27.6948 15.1762 27.6948L11.2571 27.696C9.86154 27.696 8.72619 28.8314 8.72619 30.227C8.7274 31.6213 9.85547 32.7567 11.2571 32.7567Z" fill="url(#paint9_linear_663_3911)"/>
<path d="M4.71445 27.6963H2.53091C1.13534 27.6963 -7.62939e-06 28.8316 -7.62939e-06 30.2272C-7.62939e-06 31.6228 1.12806 32.7581 2.53091 32.7581H4.7217C6.11727 32.7581 7.25262 31.6228 7.25262 30.2272C7.25141 28.8316 6.11606 27.6963 4.71445 27.6963Z" fill="url(#paint10_linear_663_3911)"/>
<path d="M45.6513 52.4562C45.6513 51.0606 44.5233 49.9253 43.1204 49.9253L23.4686 49.9265C22.073 49.9265 20.9377 51.0619 20.9377 52.4574C20.9377 53.853 22.0657 54.9883 23.4686 54.9883H43.1204C44.516 54.9871 45.6513 53.8518 45.6513 52.4562Z" fill="url(#paint11_linear_663_3911)"/>
<path d="M16.0351 49.3276H12.1232C10.7276 49.3276 9.59223 50.463 9.59223 51.8586C9.59223 53.2541 10.7203 54.3895 12.1232 54.3895H16.0351C17.4307 54.3895 18.566 53.2541 18.566 51.8586C18.5648 50.463 17.4307 49.3276 16.0351 49.3276Z" fill="url(#paint12_linear_663_3911)"/>
<path d="M4.71445 49.3276H2.53091C1.13534 49.3276 -7.62939e-06 50.463 -7.62939e-06 51.8586C-7.62939e-06 53.2541 1.12806 54.3895 2.53091 54.3895H4.7217C6.11727 54.3895 7.25262 53.2541 7.25262 51.8586C7.25141 50.463 6.11606 49.3276 4.71445 49.3276Z" fill="url(#paint13_linear_663_3911)"/>
</g>
<defs>
<linearGradient id="paint0_linear_663_3911" x1="86.295" y1="17.6748" x2="86.295" y2="43.5723" gradientUnits="userSpaceOnUse">
<stop/>
<stop offset="1" stop-color="#E66445"/>
</linearGradient>
<linearGradient id="paint1_linear_663_3911" x1="102.985" y1="0.481934" x2="102.985" y2="98.723" gradientUnits="userSpaceOnUse">
<stop/>
<stop offset="1" stop-color="#E66445"/>
</linearGradient>
<linearGradient id="paint2_linear_663_3911" x1="41.7964" y1="16.873" x2="41.7964" y2="21.9349" gradientUnits="userSpaceOnUse">
<stop/>
<stop offset="1" stop-color="#E66445"/>
</linearGradient>
<linearGradient id="paint3_linear_663_3911" x1="22.7898" y1="16.873" x2="22.7898" y2="21.9361" gradientUnits="userSpaceOnUse">
<stop/>
<stop offset="1" stop-color="#E66445"/>
</linearGradient>
<linearGradient id="paint4_linear_663_3911" x1="12.1174" y1="16.8716" x2="12.1174" y2="21.9346" gradientUnits="userSpaceOnUse">
<stop/>
<stop offset="1" stop-color="#E66445"/>
</linearGradient>
<linearGradient id="paint5_linear_663_3911" x1="41.7971" y1="38.5103" x2="41.7971" y2="43.5721" gradientUnits="userSpaceOnUse">
<stop/>
<stop offset="1" stop-color="#E66445"/>
</linearGradient>
<linearGradient id="paint6_linear_663_3911" x1="22.7898" y1="38.5151" x2="22.7898" y2="43.577" gradientUnits="userSpaceOnUse">
<stop/>
<stop offset="1" stop-color="#E66445"/>
</linearGradient>
<linearGradient id="paint7_linear_663_3911" x1="12.1174" y1="38.5103" x2="12.1174" y2="43.5733" gradientUnits="userSpaceOnUse">
<stop/>
<stop offset="1" stop-color="#E66445"/>
</linearGradient>
<linearGradient id="paint8_linear_663_3911" x1="33.2945" y1="27.6948" x2="33.2945" y2="32.7567" gradientUnits="userSpaceOnUse">
<stop/>
<stop offset="1" stop-color="#E66445"/>
</linearGradient>
<linearGradient id="paint9_linear_663_3911" x1="13.2167" y1="27.6948" x2="13.2167" y2="32.7567" gradientUnits="userSpaceOnUse">
<stop/>
<stop offset="1" stop-color="#E66445"/>
</linearGradient>
<linearGradient id="paint10_linear_663_3911" x1="3.62631" y1="27.6963" x2="3.62631" y2="32.7581" gradientUnits="userSpaceOnUse">
<stop/>
<stop offset="1" stop-color="#E66445"/>
</linearGradient>
<linearGradient id="paint11_linear_663_3911" x1="33.2945" y1="49.9253" x2="33.2945" y2="54.9883" gradientUnits="userSpaceOnUse">
<stop/>
<stop offset="1" stop-color="#E66445"/>
</linearGradient>
<linearGradient id="paint12_linear_663_3911" x1="14.0791" y1="49.3276" x2="14.0791" y2="54.3895" gradientUnits="userSpaceOnUse">
<stop/>
<stop offset="1" stop-color="#E66445"/>
</linearGradient>
<linearGradient id="paint13_linear_663_3911" x1="3.62631" y1="49.3276" x2="3.62631" y2="54.3895" gradientUnits="userSpaceOnUse">
<stop/>
<stop offset="1" stop-color="#E66445"/>
</linearGradient>
</defs>
</svg>
