<svg width="71" height="70" viewBox="0 0 71 70" fill="none" xmlns="http://www.w3.org/2000/svg">
<rect x="0.0517578" width="70" height="70" fill="#E66445" fill-opacity="0.39"/>
<path d="M60.991 23.4134C61.003 23.3404 61.003 23.2662 60.991 23.1928V23.0823V23.0827C60.9729 23.0015 60.9407 22.9243 60.8966 22.8538C60.8945 22.8328 60.8945 22.8118 60.8966 22.7907L56.7581 17.1631C56.714 17.098 56.6612 17.0398 56.6006 16.9895L56.5297 16.9421L50.1451 13.5764C50.0312 13.5149 49.9042 13.4828 49.7748 13.4819H32.4335C32.304 13.4828 32.1766 13.5149 32.0628 13.5764L25.686 16.9421C25.686 16.9421 25.6464 16.9421 25.6229 16.9895H25.5677L25.4493 17.1079L21.9265 21.9552L21.3195 22.7985V22.7989C21.2506 22.8851 21.2069 22.9886 21.1933 23.0983C21.1896 23.1189 21.1896 23.1404 21.1933 23.1614C21.1739 23.2575 21.1739 23.3569 21.1933 23.4529C21.2209 23.5577 21.2721 23.655 21.343 23.7367L34.6801 39.2643H32.6463H32.6467C32.1325 39.1863 31.636 39.0181 31.1803 38.7678C30.264 38.1847 29.2001 37.8759 28.1144 37.8771H18.7504C18.4506 37.6874 18.1038 37.5864 17.7492 37.5856H16.4803C16.3285 37.2392 16.0794 36.9443 15.7632 36.7369C15.4465 36.5299 15.077 36.4194 14.6988 36.419H9V54.2722H14.7068C15.0833 54.2706 15.4515 54.1592 15.7665 53.9522C16.0812 53.7448 16.329 53.4512 16.4803 53.1056H17.7413C18.0951 53.1056 18.4419 53.0054 18.7417 52.8174C19.0411 52.6294 19.2819 52.3605 19.4361 52.0417L34.8065 55.7938H34.8061C36.3305 56.1881 37.9495 55.9613 39.3071 55.1629L59.013 43.6552H59.0126C60.0365 43.1088 60.6909 42.0581 60.7293 40.8982C60.768 39.7386 60.1854 38.6467 59.2003 38.033C58.2155 37.4198 56.978 37.3786 55.9545 37.925L46.8821 42.3233C46.8298 41.8371 46.6768 41.3674 46.4327 40.9435C46.3852 40.8648 46.3222 40.8017 46.2673 40.7229L60.8259 23.7754V23.7758C60.8927 23.6971 60.9438 23.6059 60.9755 23.5078C60.9755 23.5078 60.9912 23.4369 60.9912 23.4129L60.991 23.4134ZM49.6807 20.2056L49.8543 26.1408H32.34V25.4946L32.4975 20.2056L49.6807 20.2056ZM51.4226 25.794L51.249 19.9846L52.7388 19.5199L55.8208 18.5661L58.9737 22.9092L51.4226 25.794ZM26.3729 18.566L29.6203 19.5829L30.9366 20.0007L30.7713 25.81L23.2043 22.9094L26.3729 18.566ZM38.7241 39.2094L32.8202 27.7175H49.3729L43.4769 39.1788H40.9783L38.7241 39.2094ZM45.0299 39.6036L51.2332 27.5522L57.6022 25.1086L45.1085 39.6598L45.0299 39.6036ZM32.6387 15.0427H49.5851L54.1331 17.4072L53.0535 17.7775L50.3261 18.6364L31.8732 18.6369L30.4782 18.1956L30.1549 18.0934L28.0976 17.4472L32.6387 15.0427ZM24.5828 25.1082L30.9595 27.5518L36.9739 39.2569H36.7376L24.5828 25.1082ZM14.7061 52.6956H10.5763V38.0115H14.7066C14.9111 38.0115 15.0769 38.1772 15.0769 38.3818V52.3259C15.0769 52.5305 14.9111 52.6962 14.7066 52.6962L14.7061 52.6956ZM17.7485 51.529H16.6533V39.1779H17.749C17.8327 39.1779 17.9127 39.2108 17.9721 39.2702C18.031 39.3292 18.0644 39.4096 18.0644 39.4929V51.2139C18.0644 51.2976 18.031 51.3776 17.9721 51.4369C17.9127 51.4959 17.8327 51.5289 17.749 51.5289L17.7485 51.529ZM56.679 39.3436C57.0105 39.184 57.385 39.1378 57.7454 39.2121C58.1058 39.2859 58.4316 39.4764 58.6732 39.7535C58.9994 40.1292 59.1413 40.6302 59.0605 41.1209C58.98 41.6112 58.6848 42.0404 58.2555 42.2916L38.5507 53.7993C37.5507 54.3915 36.3561 54.5589 35.2319 54.2644L19.6325 50.4653V39.4696H28.1218C28.7656 39.4688 29.4001 39.6202 29.9742 39.9109L30.3684 40.1393V40.1397C31.0059 40.5039 31.7066 40.7443 32.4335 40.849C32.8591 40.9121 34.798 40.849 36.3745 40.849L38.29 40.7938C39.1807 40.7938 40.0714 40.7938 40.962 40.7542H43.0668L43.0664 40.7546C43.3324 40.7414 43.5983 40.7707 43.8548 40.8412C44.3439 40.9851 44.76 41.3092 45.0189 41.7484C45.2779 42.1871 45.3603 42.7084 45.2498 43.2057C45.1356 43.7063 44.8338 44.1434 44.4065 44.4275C44.1905 44.5702 43.9501 44.6721 43.6969 44.7273C43.4581 44.7714 43.2148 44.7871 42.9719 44.7743H40.9699L37.1468 44.6956H36.0037C35.1052 44.6956 34.2145 44.6403 33.3238 44.5933L33.2372 46.1698C34.1435 46.2172 35.0421 46.2486 35.9485 46.2721L40.9382 46.3904H43.0824C43.4135 46.3958 43.7443 46.3616 44.0675 46.2878C45.2073 46.0515 46.159 45.2709 46.6135 44.1991L56.679 39.3436Z" fill="url(#paint0_linear_570_1104)"/>
<defs>
<linearGradient id="paint0_linear_570_1104" x1="35" y1="13.4819" x2="35" y2="55.9831" gradientUnits="userSpaceOnUse">
<stop/>
<stop offset="1" stop-color="#E66445"/>
</linearGradient>
</defs>
</svg>
