<svg width="53" height="52" viewBox="0 0 53 52" fill="none" xmlns="http://www.w3.org/2000/svg">
<g clip-path="url(#clip0_1129_1856)">
<path d="M46.7038 52H18.1038V46.696H43.0118L0.0078125 3.692L3.69981 0L46.7038 43.004V18.096H52.0078V52H46.7038Z" fill="white"/>
</g>
<defs>
<clipPath id="clip0_1129_1856">
<rect width="52.0156" height="52" fill="white" transform="matrix(1 0 0 -1 0 52)"/>
</clipPath>
</defs>
</svg>
