<svg width="39" height="31" viewBox="0 0 39 31" fill="none" xmlns="http://www.w3.org/2000/svg">
<path d="M31.0996 11.9414L30.5723 12.8203C30.3965 13.1133 30.0449 13.2305 29.6934 13.1133C29.0488 12.8789 28.4043 12.4688 27.8184 12.0586C27.584 11.8242 27.4668 11.4141 27.6426 11.1211L28.1699 10.3008C27.7598 9.83203 27.4082 9.24609 27.2324 8.66016H26.2363C25.8848 8.66016 25.5918 8.42578 25.5332 8.07422C25.416 7.37109 25.416 6.60938 25.5332 5.90625C25.5918 5.55469 25.8848 5.26172 26.2363 5.26172H27.2324C27.4082 4.67578 27.7598 4.14844 28.1699 3.67969L27.6426 2.85938C27.4668 2.50781 27.584 2.15625 27.8184 1.92188C28.4043 1.45312 29.0488 1.10156 29.6934 0.808594C30.0449 0.691406 30.3965 0.808594 30.5723 1.16016L31.0996 1.98047C31.6855 1.86328 32.3301 1.86328 32.916 1.98047L33.4434 1.16016C33.6191 0.808594 33.9707 0.691406 34.3223 0.808594C34.9668 1.10156 35.6113 1.45312 36.1973 1.92188C36.4316 2.15625 36.5488 2.50781 36.373 2.85938L35.8457 3.67969C36.2559 4.14844 36.6074 4.67578 36.7832 5.26172H37.7793C38.1309 5.26172 38.4238 5.55469 38.4824 5.90625C38.5996 6.60938 38.5996 7.3125 38.4824 8.07422C38.4238 8.42578 38.1309 8.66016 37.7793 8.66016H36.7832C36.6074 9.24609 36.2559 9.83203 35.8457 10.3008L36.373 11.1211C36.5488 11.4141 36.4316 11.8242 36.1973 12.0586C35.6113 12.4688 34.9668 12.8789 34.3223 13.1133C33.9707 13.2305 33.6191 13.1133 33.4434 12.8203L32.916 11.9414C32.3301 12.0586 31.6855 12.0586 31.0996 11.9414ZM30.4551 8.54297C32.7402 10.2422 35.3184 7.66406 33.5605 5.4375C31.2754 3.67969 28.7559 6.25781 30.4551 8.54297ZM23.7168 17.5664L25.709 18.5039C26.2949 18.8555 26.5293 19.5586 26.2949 20.2031C25.7676 21.668 24.7715 22.957 23.7754 24.0703C23.3652 24.5977 22.6035 24.7148 22.0176 24.4219L20.3184 23.4258C19.3809 24.1875 18.2676 24.832 17.0957 25.2422V27.2344C17.0957 27.9375 16.627 28.5234 15.9238 28.6406C14.5176 28.875 12.9941 28.875 11.5293 28.6406C10.8262 28.5234 10.3574 27.9375 10.3574 27.2344V25.2422C9.12695 24.832 8.07227 24.1875 7.13477 23.4258L5.43555 24.3633C4.84961 24.7148 4.08789 24.5977 3.61914 24.0703C2.68164 22.957 1.68555 21.668 1.1582 20.2031C0.923828 19.6172 1.1582 18.8555 1.80273 18.5039L3.73633 17.5664C3.50195 16.3359 3.50195 15.0469 3.73633 13.8164L1.80273 12.8203C1.1582 12.4688 0.923828 11.7656 1.1582 11.1211C1.68555 9.71484 2.68164 8.42578 3.61914 7.25391C4.08789 6.78516 4.79102 6.60938 5.43555 6.96094L7.13477 7.95703C8.07227 7.13672 9.12695 6.49219 10.3574 6.08203V4.14844C10.3574 3.44531 10.8262 2.85938 11.4707 2.74219C12.9355 2.50781 14.459 2.50781 15.9238 2.74219C16.627 2.85938 17.0957 3.44531 17.0957 4.14844V6.08203C18.2676 6.49219 19.3809 7.13672 20.3184 7.95703L22.0176 6.96094C22.6035 6.60938 23.3652 6.72656 23.7754 7.25391C24.7715 8.42578 25.7676 9.71484 26.2949 11.1211C26.5293 11.7656 26.2949 12.4688 25.709 12.8203L23.7168 13.8164C23.9512 15.0469 23.9512 16.3359 23.7168 17.5664ZM16.8027 18.7969C20.2598 14.2852 15.1621 9.12891 10.6504 12.5859C7.13477 17.0977 12.291 22.2539 16.8027 18.7969ZM31.0996 29.4609L30.5723 30.3398C30.3965 30.6328 30.0449 30.75 29.6934 30.6328C29.0488 30.3984 28.4043 29.9883 27.8184 29.5195C27.584 29.3438 27.4668 28.9336 27.6426 28.6406L28.1699 27.7617C27.7598 27.293 27.4082 26.7656 27.2324 26.1797H26.2363C25.8848 26.1797 25.5918 25.9453 25.5332 25.5938C25.416 24.8906 25.416 24.1289 25.5332 23.4258C25.5918 23.0742 25.8848 22.7812 26.2363 22.7812H27.2324C27.4082 22.1953 27.7598 21.668 28.1699 21.1992L27.6426 20.3789C27.4668 20.0273 27.584 19.6758 27.8184 19.4414C28.4043 18.9727 29.0488 18.6211 29.6934 18.3281C30.0449 18.2109 30.3965 18.3281 30.5723 18.6797L31.0996 19.5C31.6855 19.3828 32.3301 19.3828 32.916 19.5L33.4434 18.6797C33.6191 18.3281 33.9707 18.2109 34.3223 18.3281C34.9668 18.6211 35.6113 18.9727 36.1973 19.4414C36.4316 19.6758 36.5488 20.0273 36.373 20.3789L35.8457 21.1992C36.2559 21.668 36.6074 22.1953 36.7832 22.7812H37.7793C38.1309 22.7812 38.4238 23.0742 38.4824 23.4258C38.5996 24.1289 38.5996 24.832 38.4824 25.5938C38.4238 25.9453 38.1309 26.1797 37.7793 26.1797H36.7832C36.6074 26.7656 36.2559 27.293 35.8457 27.7617L36.373 28.6406C36.5488 28.9336 36.4316 29.3438 36.1973 29.5195C35.6113 29.9883 34.9668 30.3984 34.3223 30.6328C33.9707 30.75 33.6191 30.6328 33.4434 30.3398L32.916 29.4609C32.3301 29.5781 31.6855 29.5781 31.0996 29.4609ZM30.4551 26.0039C32.7402 27.7617 35.3184 25.1836 33.5605 22.957C31.2754 21.1992 28.7559 23.7773 30.4551 26.0039Z" fill="#FF5E14"/>
</svg>
