<svg width="71" height="70" viewBox="0 0 71 70" fill="none" xmlns="http://www.w3.org/2000/svg">
<rect x="0.836914" width="70" height="70" fill="#E66445" fill-opacity="0.39"/>
<path d="M58.2841 48.1332L51.3546 42.3629C51.067 42.1238 50.7033 41.9959 50.3294 42.0024C49.9555 42.0089 49.5961 42.1494 49.3169 42.3979L41.3803 35.7892L46.1016 30.3957C46.4307 30.0037 46.9361 29.8058 47.444 29.8697C50.0911 30.1515 52.6945 29.0353 54.3154 26.9232C55.9362 24.811 56.3411 22.0079 55.3843 19.5237C55.3659 19.4724 55.3406 19.424 55.3099 19.3796C55.113 19.1007 54.7279 19.0324 54.4476 19.2275C54.4032 19.2582 54.3631 19.2947 54.3284 19.3362L50.4502 23.7663L47.461 23.175L46.477 20.2899L50.3558 15.859C50.392 15.8196 50.4227 15.7752 50.4476 15.7275C50.5227 15.5812 50.5372 15.4111 50.4873 15.2543C50.461 15.1709 50.4169 15.0943 50.3584 15.0296C50.2717 14.9328 50.1568 14.866 50.03 14.8378C47.4411 14.2194 44.717 14.9921 42.8386 16.8777C40.9599 18.7634 40.198 21.4907 40.8265 24.0771C40.9566 24.5713 40.8272 25.0976 40.4834 25.4754L35.6414 31.0065L28.9424 25.4292L30.9242 23.0498C31.3768 23.2528 31.8833 23.3023 32.3666 23.191C32.85 23.0794 33.2834 22.8132 33.6016 22.4324L34.5444 21.3021C34.9291 20.839 35.1148 20.2423 35.0599 19.6426C35.0053 19.0434 34.7153 18.4899 34.2529 18.1041L28.7517 13.5241C28.2886 13.1401 27.6919 12.9548 27.0926 13.0094C26.4933 13.0643 25.9399 13.354 25.5538 13.8156L24.6124 14.9463C24.2956 15.3278 24.112 15.8024 24.09 16.298C24.068 16.7937 24.2085 17.2827 24.4903 17.6909L16.9814 26.7091C16.5287 26.5061 16.0223 26.4562 15.5389 26.5678C15.0556 26.6791 14.6218 26.9457 14.3039 27.3264L13.3608 28.4568C12.9768 28.9198 12.7915 29.5166 12.8464 30.1158C12.9009 30.7151 13.1906 31.2686 13.6523 31.6547L19.1521 36.2347V36.2344C19.6152 36.6195 20.2119 36.8051 20.8115 36.7502C21.4108 36.6957 21.9642 36.4052 22.35 35.9429L23.2914 34.8119C23.6086 34.4304 23.7921 33.9558 23.8141 33.4602C23.8365 32.9649 23.696 32.4755 23.4143 32.0673L25.396 29.685L31.9899 35.1742L26.6903 41.2346C26.3605 41.6262 25.8551 41.8237 25.3473 41.7602C22.7002 41.4795 20.0978 42.5961 18.4774 44.7082C16.8569 46.8199 16.452 49.6228 17.4085 52.1069C17.4258 52.1561 17.4496 52.203 17.4796 52.2457C17.5233 52.31 17.5793 52.3652 17.6436 52.4086C17.7903 52.5075 17.972 52.5393 18.1436 52.4953C18.2162 52.4772 18.2848 52.4454 18.3458 52.4021C18.3896 52.3714 18.4293 52.3352 18.464 52.2944L22.3422 47.8636L25.3314 48.4549L26.3154 51.34L22.4365 55.7709C22.4011 55.8095 22.3708 55.8529 22.3466 55.8998C22.3112 55.9667 22.2888 56.0393 22.2801 56.114C22.2508 56.3698 22.382 56.6165 22.6099 56.7357C22.6583 56.7603 22.7092 56.7787 22.7623 56.7906C25.3505 57.4091 28.0742 56.6364 29.9527 54.7511C31.831 52.8662 32.5937 50.1396 31.9658 47.5536C31.8362 47.0594 31.9655 46.5331 32.309 46.1553L37.7307 39.9602L45.771 46.6559C45.577 46.9756 45.504 47.3545 45.5654 47.7234C45.6268 48.0922 45.8179 48.427 46.1048 48.6669L53.0324 54.4371C53.5667 54.8843 54.2415 55.1289 54.9379 55.1275C55.0307 55.1275 55.1239 55.1228 55.2171 55.1144V55.1148C56.0071 55.0458 56.7365 54.6636 57.2429 54.0535L58.6665 52.3445C59.1733 51.7351 59.4179 50.9495 59.3464 50.1602C59.2745 49.3705 58.8927 48.6415 58.2844 48.1333L58.2841 48.1332ZM22.5156 31.2111L17.9844 27.4373L25.3896 18.547L29.9209 22.3208L22.5156 31.2111ZM25.5637 15.7373L26.5059 14.6066L26.5055 14.6069C26.8714 14.1705 27.5206 14.1113 27.9595 14.4743L33.457 19.0558C33.8934 19.4214 33.9526 20.0712 33.5896 20.5098L32.6501 21.6408C32.2841 22.0772 31.6347 22.1364 31.1961 21.7734L25.6963 17.1934C25.2585 16.8274 25.1992 16.1761 25.5637 15.7373ZM22.3401 34.0177L21.3987 35.1487H21.3984C21.0328 35.5851 20.383 35.6443 19.9444 35.2813L14.4446 30.7034C14.0082 30.3375 13.949 29.688 14.312 29.2494L15.2534 28.1187C15.619 27.682 16.2688 27.6227 16.7078 27.9858L22.2076 32.5677C22.6428 32.9325 22.7021 33.5802 22.3401 34.0177ZM26.1883 28.7355L28.1498 26.3802L34.825 31.9396L32.8054 34.2467L26.1883 28.7355ZM31.3774 45.3366H31.377C30.7665 46.0179 30.5364 46.9589 30.764 47.8446C31.247 49.8296 30.7542 51.9262 29.4371 53.4878C28.1205 55.0498 26.1376 55.89 24.0996 55.7494L27.4806 51.8867C27.6259 51.7198 27.6717 51.4887 27.6006 51.2791L26.388 47.7181C26.3168 47.5086 26.1391 47.3529 25.922 47.3103L22.2313 46.5795H22.2309C22.0142 46.5365 21.7909 46.6127 21.6454 46.7793L18.2649 50.6412C17.8567 48.64 18.4275 46.5644 19.8012 45.0529C21.1747 43.5415 23.1866 42.7761 25.2175 42.9918C26.1256 43.0994 27.028 42.7461 27.6215 42.0504L41.4151 26.2926C42.0263 25.612 42.2571 24.6714 42.0303 23.7853C41.5476 21.8007 42.0404 19.7048 43.3563 18.1432C44.6726 16.582 46.6551 15.7417 48.6924 15.8816L45.3114 19.7439C45.1661 19.9104 45.1203 20.1419 45.1914 20.3511L46.4037 23.9125C46.4748 24.122 46.6526 24.2773 46.8697 24.3203L50.5604 25.0511V25.0507C50.7775 25.0937 51.0007 25.0175 51.1463 24.851L54.5274 20.9887C54.9355 22.9899 54.3652 25.0659 52.9914 26.5773C51.6177 28.0891 49.6056 28.8545 47.5744 28.6385C46.6663 28.5308 45.7643 28.8845 45.1712 29.5806L31.3774 45.3366ZM40.5656 36.7213L48.5101 43.3393L46.5483 45.6931L38.5459 39.0281L40.5656 36.7213ZM57.716 51.5524L56.2939 53.2607C55.9955 53.6158 55.5689 53.8387 55.1069 53.8806C54.6448 53.9229 54.185 53.7813 53.827 53.4861L46.8964 47.7151C46.7613 47.5995 46.7429 47.3969 46.8549 47.2589L50.1056 43.3558C50.2212 43.2207 50.4235 43.2023 50.5618 43.3142L57.4914 49.0849C57.8479 49.3825 58.0719 49.8095 58.1141 50.2723C58.156 50.7346 58.013 51.1952 57.716 51.5524ZM40.3178 31.3337C39.9706 31.0309 39.5173 30.8781 39.0578 30.9085C38.5979 30.9392 38.1692 31.1509 37.865 31.4969L32.3097 37.8434C32.0146 38.1797 31.8607 38.6168 31.8802 39.0636C31.8997 39.5105 32.0908 39.9327 32.4137 40.2419C32.7367 40.5515 33.1669 40.7245 33.614 40.7245C33.6534 40.7245 33.6928 40.7246 33.7325 40.7209C34.192 40.6917 34.6208 40.4796 34.9235 40.1329L40.4807 33.7864C40.7838 33.4392 40.9366 32.9859 40.9059 32.5264C40.8755 32.0665 40.6638 31.6378 40.3178 31.3337ZM39.5494 32.9707L33.9937 39.3176C33.8095 39.5155 33.5013 39.5314 33.298 39.3534C33.0942 39.1753 33.0693 38.8675 33.2413 38.6591L38.7966 32.3126C38.884 32.2129 39.0076 32.1522 39.1401 32.1443H39.1748C39.2951 32.1435 39.4114 32.1869 39.5021 32.2664C39.708 32.4491 39.7289 32.7634 39.5491 32.9718L39.5494 32.9707Z" fill="url(#paint0_linear_663_4593)"/>
<defs>
<linearGradient id="paint0_linear_663_4593" x1="36.0978" y1="13" x2="36.0978" y2="57" gradientUnits="userSpaceOnUse">
<stop/>
<stop offset="1" stop-color="#E66445"/>
</linearGradient>
</defs>
</svg>
