<svg width="29" height="31" viewBox="0 0 29 31" fill="none" xmlns="http://www.w3.org/2000/svg">
<path d="M26.4043 5.67188C27.459 6.14062 28.1621 7.13672 28.1621 8.25C28.1621 21.2578 20.1934 28.4648 15.1543 30.5742C14.4512 30.8672 13.6895 30.8672 12.9863 30.5742C6.7168 27.9375 0.0371094 19.9102 0.0371094 8.25C0.0371094 7.13672 0.681641 6.14062 1.73633 5.67188L12.9863 0.984375C13.3379 0.867188 13.6895 0.808594 14.0996 0.808594C14.4512 0.808594 14.8027 0.867188 15.1543 0.984375L26.4043 5.67188ZM14.0996 26.9414C19.5488 24.1875 24.1777 17.7422 24.3535 8.89453L14.0996 4.61719V26.9414Z" fill="#FF5E14"/>
</svg>
